[gd_scene load_steps=7 format=2]

[ext_resource path="res://lib/building/building_placeholder.gd" type="Script" id=1]
[ext_resource path="res://lib/building/building_placeholder.gdshader" type="Shader" id=2]
[ext_resource path="res://lib/building/building.png" type="Texture" id=3]
[ext_resource path="res://lib/building/building_shape.tres" type="Shape2D" id=4]

[sub_resource type="ShaderMaterial" id=3]
shader = ExtResource( 2 )
shader_param/speed = 4.0

[sub_resource type="RectangleShape2D" id=4]
extents = Vector2( 3, 2.5 )

[node name="BuildingPlaceholder" type="Sprite"]
material = SubResource( 3 )
position = Vector2( 15, 14 )
texture = ExtResource( 3 )
centered = false
offset = Vector2( -4, -6 )
script = ExtResource( 1 )

[node name="PhysicsQueryShape" type="CollisionShape2D" parent="."]
position = Vector2( 0, -2.5 )
shape = SubResource( 4 )
disabled = true

[node name="MapQueryShape" type="CollisionShape2D" parent="."]
position = Vector2( 0, -2.5 )
shape = ExtResource( 4 )
disabled = true
