[gd_scene load_steps=5 format=2]

[ext_resource path="res://lib/unit/unit_carry.png" type="Texture" id=1]
[ext_resource path="res://lib/unit/unit.gd" type="Script" id=2]
[ext_resource path="res://lib/unit/unit.png" type="Texture" id=3]

[sub_resource type="RectangleShape2D" id=1]
extents = Vector2( 1.5, 2 )

[node name="Unit" type="Area2D"]
collision_layer = 8
collision_mask = 8
script = ExtResource( 2 )

[node name="CollisionShape2D" type="CollisionShape2D" parent="."]
position = Vector2( 0.5, -1 )
shape = SubResource( 1 )

[node name="AudioStreamPlayer2D" type="AudioStreamPlayer2D" parent="."]
max_distance = 96.0
attenuation = 2.0

[node name="Visuals" type="Node2D" parent="."]

[node name="Sprite" type="Sprite" parent="Visuals"]
position = Vector2( 1, -1 )
texture = ExtResource( 3 )

[node name="SpriteCarry" type="Sprite" parent="Visuals"]
visible = false
position = Vector2( 1, -1 )
texture = ExtResource( 1 )
